…
Note the new reduction in NA counts.

For those remaining, next try text processing:

``` r
dat %>% filter(type %in% NA) %>% mutate(name = str_to_upper(name),
                                        name = str_replace_all(name, "[:digit:]|[:punct:]", ""),
                                        name = str_trim(name)) %>% 
  count(name) %>% arrange(desc(n))
```

    # A tibble: 403 x 2
       name               n
       <chr>          <int>
     1 GIANT EAGLE       78
     2 RITE AID          74
     3 DOLLAR GENERAL    41
     4 FAMILY DOLLAR     40
     5 DOLLAR TREE       33
     6 ALDI              24
     7 SHEETZ            23
     8 GETGO             22
     9 COGOS             20
    10 CVS PHARMACY      20
    # … with 393 more rows
…
GPCFB Green Grocer and Just Harvest - Fresh Access Markets.

Both of these should all be `type` = "Farmers Market" based on previously discussed rules with PFPC.

``` r
dat %>% filter(str_detect(name, "Green Grocer")) %>% select(name, type, source)
```

    # A tibble: 24 x 3
       name                            type      source                        
       <chr>                           <chr>     <chr>                         
     1 Green Grocer (5 Generation Bak… Farmers … Allegheny_County_Farmers_Mark…
     2 Green Grocer (A Childs World D… Farmers … Allegheny_County_Farmers_Mark…
     3 Green Grocer (Alma Illery Medi… Farmers … Allegheny_County_Farmers_Mark…
     4 Green Grocer (Family Dollar)    Farmers … Allegheny_County_Farmers_Mark…
     5 Green Grocer (GAP Park )        Farmers … Allegheny_County_Farmers_Mark…
     6 Green Grocer (Greater Pittsbur… Farmers … Allegheny_County_Farmers_Mark…
     7 Green Grocer - Greater Pittsbu… <NA>      PA.xlsx                       
     8 Green Grocer (Family Support C… <NA>      GPCFB - Green Grocer.xlsx     
     9 Green Grocer (Three Rivers Man… <NA>      GPCFB - Green Grocer.xlsx     
    10 Green Grocer (GAP Park)         <NA>      GPCFB - Green Grocer.xlsx     
    # … with 14 more rows

``` r
dat %>% filter(str_detect(source, "Fresh Access Market")) %>% select(name, type, source)
```

    # A tibble: 22 x 3
       name                        type  source                                
       <chr>                       <chr> <chr>                                 
     1 Beechview Farmers Market    <NA>  Just Harvest - Fresh Access Markets.x…
     2 Belllevue Farmers Market    <NA>  Just Harvest - Fresh Access Markets.x…
     3 Bloomfield Saturday Market  <NA>  Just Harvest - Fresh Access Markets.x…
     4 Carrick Farmers Market      <NA>  Just Harvest - Fresh Access Markets.x…
     5 East Liberty Farmers Market <NA>  Just Harvest - Fresh Access Markets.x…
     6 Garfield Farm Stand         <NA>  Just Harvest - Fresh Access Markets.x…
     7 Green Tree Farmers Market   <NA>  Just Harvest - Fresh Access Markets.x…
     8 Homewood Farmers Market     <NA>  Just Harvest - Fresh Access Markets.x…
     9 Homewood Farmers Market     <NA>  Just Harvest - Fresh Access Markets.x…
    10 Larimer Farmers Market      <NA>  Just Harvest - Fresh Access Markets.x…
    # … with 12 more rows
…
