…
Check ADDRESS2

``` r
PA %>% filter(!is.na(ADDRESS2)) %>% select(ADDRESS, ADDRESS2)
```

    # A tibble: 435 x 2
       ADDRESS               ADDRESS2  
       <chr>                 <chr>     
     1 15 Commerce Dr        Ste A     
     2 9 N Washington St     Ste 4     
     3 1300 N Charlotte St   Ste 4     
     4 6858 Route 711        Ste 8     
     5 85 Front Street       PO Box 166
     6 1568 Chester Pike     Unit B-1  
     7 3668 Aramingo Ave     Ste 9A    
     8 3000 Island Ave       Ste. M-P  
     9 9048 William Penn Hwy Ste 16    
    10 4910 Fairfield Rd     Ste G     
    # … with 425 more rows

``` r
PA %>% distinct(County)
```

    # A tibble: 68 x 1
       County      
       <chr>       
     1 MONTGOMERY  
     2 DELAWARE    
     3 PHILADELPHIA
     4 CAMBRIA     
     5 LACKAWANNA  
     6 ALLEGHENY   
     7 GREENE      
     8 FAYETTE     
     9 †           
    10 CHESTER     
    # … with 58 more rows
…
